…
```
## 
## ℹ Use `spec()` to retrieve the full column specification for this data.
## ℹ Specify the column types or set `show_col_types = FALSE` to quiet this message.
```

1. (3 points) Once you have an idea of the structure of the data, please make each data set tidy (hint: think back to pivots) and store them as new objects. You will need both the original (wide) and tidy (long) data!  


```r
gdp_data
```

```
## # A tibble: 193 × 242
##    country     x1800 x1801 x1802 x1803 x1804 x1805 x1806 x1807 x1808 x1809 x1810
##    <chr>       <dbl> <dbl> <dbl> <dbl> <dbl> <dbl> <dbl> <dbl> <dbl> <dbl> <dbl>
##  1 Afghanistan   603   603   603   603   603   603   603   603   603   603   604
##  2 Albania       667   667   667   667   667   668   668   668   668   668   668
##  3 Algeria       715   716   717   718   719   720   721   722   723   724   725
##  4 Andorra      1200  1200  1200  1200  1210  1210  1210  1210  1220  1220  1220
##  5 Angola        618   620   623   626   628   631   634   637   640   642   645
##  6 Antigua an…   757   757   757   757   757   757   757   758   758   758   758
##  7 Argentina    1640  1640  1650  1650  1660  1660  1670  1680  1680  1690  1690
##  8 Armenia       514   514   514   514   514   514   514   514   514   514   514
##  9 Australia     817   822   826   831   836   841   845   850   855   860   865
## 10 Austria      1850  1850  1860  1870  1880  1880  1890  1900  1910  1920  1920
## # … with 183 more rows, and 230 more variables: x1811 <dbl>, x1812 <dbl>,
## #   x1813 <dbl>, x1814 <dbl>, x1815 <dbl>, x1816 <dbl>, x1817 <dbl>,
## #   x1818 <dbl>, x1819 <dbl>, x1820 <dbl>, x1821 <dbl>, x1822 <dbl>,
## #   x1823 <dbl>, x1824 <dbl>, x1825 <dbl>, x1826 <dbl>, x1827 <dbl>,
## #   x1828 <dbl>, x1829 <dbl>, x1830 <dbl>, x1831 <dbl>, x1832 <dbl>,
## #   x1833 <dbl>, x1834 <dbl>, x1835 <dbl>, x1836 <dbl>, x1837 <dbl>,
## #   x1838 <dbl>, x1839 <dbl>, x1840 <dbl>, x1841 <dbl>, x1842 <dbl>, …
```


```r
gdp_data_tidy <- gdp_data%>%
  pivot_longer(-country, names_to = "year", values_to = "gdp")
gdp_data_tidy
```

```
## # A tibble: 46,513 × 3
##    country     year    gdp
##    <chr>       <chr> <dbl>
##  1 Afghanistan x1800   603
##  2 Afghanistan x1801   603
##  3 Afghanistan x1802   603
##  4 Afghanistan x1803   603
##  5 Afghanistan x1804   603
##  6 Afghanistan x1805   603
##  7 Afghanistan x1806   603
##  8 Afghanistan x1807   603
##  9 Afghanistan x1808   603
## 10 Afghanistan x1809   603
## # … with 46,503 more rows
```


```r
life_expectancy_tidy <- life_expectancy%>%
  pivot_longer(-country, names_to = "year", values_to = "life_exp")
life_expectancy_tidy
```

```
## # A tibble: 56,287 × 3
##    country     year  life_exp
##    <chr>       <chr>    <dbl>
##  1 Afghanistan x1800     28.2
##  2 Afghanistan x1801     28.2
##  3 Afghanistan x1802     28.2
##  4 Afghanistan x1803     28.2
##  5 Afghanistan x1804     28.2
##  6 Afghanistan x1805     28.2
##  7 Afghanistan x1806     28.1
##  8 Afghanistan x1807     28.1
##  9 Afghanistan x1808     28.1
## 10 Afghanistan x1809     28.1
## # … with 56,277 more rows
```


```r
population_total
```

```
## # A tibble: 195 × 302
##    country  x1800  x1801  x1802  x1803  x1804  x1805  x1806  x1807  x1808  x1809
##    <chr>    <dbl>  <dbl>  <dbl>  <dbl>  <dbl>  <dbl>  <dbl>  <dbl>  <dbl>  <dbl>
##  1 Afghan… 3.28e6 3.28e6 3.28e6 3.28e6 3.28e6 3.28e6 3.28e6 3.28e6 3.28e6 3.28e6
##  2 Albania 4   e5 4.02e5 4.04e5 4.05e5 4.07e5 4.09e5 4.11e5 4.13e5 4.14e5 4.16e5
##  3 Algeria 2.5 e6 2.51e6 2.52e6 2.53e6 2.54e6 2.55e6 2.56e6 2.56e6 2.57e6 2.58e6
##  4 Andorra 2.65e3 2.65e3 2.65e3 2.65e3 2.65e3 2.65e3 2.65e3 2.65e3 2.65e3 2.65e3
##  5 Angola  1.57e6 1.57e6 1.57e6 1.57e6 1.57e6 1.57e6 1.57e6 1.57e6 1.57e6 1.57e6
##  6 Antigu… 3.7 e4 3.7 e4 3.7 e4 3.7 e4 3.7 e4 3.7 e4 3.7 e4 3.7 e4 3.7 e4 3.7 e4
##  7 Argent… 5.34e5 5.2 e5 5.06e5 4.92e5 4.79e5 4.66e5 4.53e5 4.41e5 4.29e5 4.17e5
##  8 Armenia 4.13e5 4.13e5 4.13e5 4.13e5 4.13e5 4.13e5 4.13e5 4.13e5 4.13e5 4.13e5
##  9 Austra… 2   e5 2.05e5 2.11e5 2.16e5 2.22e5 2.27e5 2.33e5 2.39e5 2.46e5 2.52e5
## 10 Austria 3   e6 3.02e6 3.04e6 3.05e6 3.07e6 3.09e6 3.11e6 3.12e6 3.14e6 3.16e6
## # … with 185 more rows, and 291 more variables: x1810 <dbl>, x1811 <dbl>,
## #   x1812 <dbl>, x1813 <dbl>, x1814 <dbl>, x1815 <dbl>, x1816 <dbl>,
## #   x1817 <dbl>, x1818 <dbl>, x1819 <dbl>, x1820 <dbl>, x1821 <dbl>,
## #   x1822 <dbl>, x1823 <dbl>, x1824 <dbl>, x1825 <dbl>, x1826 <dbl>,
## #   x1827 <dbl>, x1828 <dbl>, x1829 <dbl>, x1830 <dbl>, x1831 <dbl>,
## #   x1832 <dbl>, x1833 <dbl>, x1834 <dbl>, x1835 <dbl>, x1836 <dbl>,
## #   x1837 <dbl>, x1838 <dbl>, x1839 <dbl>, x1840 <dbl>, x1841 <dbl>, …
```


```r
population_tidy <- population_total%>%
  pivot_longer(-country, names_to = "year", values_to = "n_population")
population_tidy
```

```
## # A tibble: 58,695 × 3
##    country     year  n_population
##    <chr>       <chr>        <dbl>
##  1 Afghanistan x1800      3280000
##  2 Afghanistan x1801      3280000
##  3 Afghanistan x1802      3280000
##  4 Afghanistan x1803      3280000
##  5 Afghanistan x1804      3280000
##  6 Afghanistan x1805      3280000
##  7 Afghanistan x1806      3280000
##  8 Afghanistan x1807      3280000
##  9 Afghanistan x1808      3280000
## 10 Afghanistan x1809      3280000
## # … with 58,685 more rows
```
…
```
## 
## ℹ Use `spec()` to retrieve the full column specification for this data.
## ℹ Specify the column types or set `show_col_types = FALSE` to quiet this message.
```

```r
life_p_K
```

```
## # A tibble: 101 × 3
##    country years life_exp
##    <chr>   <chr>    <dbl>
##  1 Kuwait  1920      26.6
##  2 Kuwait  1921      26.6
##  3 Kuwait  1922      26.6
##  4 Kuwait  1923      26.6
##  5 Kuwait  1924      26.7
##  6 Kuwait  1925      26.7
##  7 Kuwait  1926      26.7
##  8 Kuwait  1927      26.7
##  9 Kuwait  1928      26.7
## 10 Kuwait  1929      26.7
## # … with 91 more rows
```
…
```
## 
## ℹ Use `spec()` to retrieve the full column specification for this data.
## ℹ Specify the column types or set `show_col_types = FALSE` to quiet this message.
```

```r
top_pop_notclean
```

```
## # A tibble: 505 × 3
##    country years population
##    <chr>   <chr>      <dbl>
##  1 China   1920   472000000
##  2 China   1921   475000000
##  3 China   1922   478000000
##  4 China   1923   479000000
##  5 China   1924   481000000
##  6 China   1925   483000000
##  7 China   1926   484000000
##  8 China   1927   486000000
##  9 China   1928   488000000
## 10 China   1929   490000000
## # … with 495 more rows
```
…
```
## 
## ℹ Use `spec()` to retrieve the full column specification for this data.
## ℹ Specify the column types or set `show_col_types = FALSE` to quiet this message.
```

```r
gdp_notclean
```

```
## # A tibble: 505 × 3
## # Groups:   country [5]
##    country years   gdp
##    <chr>   <chr> <dbl>
##  1 Brunei  1920   2130
##  2 Brunei  1921   2140
##  3 Brunei  1922   2150
##  4 Brunei  1923   2160
##  5 Brunei  1924   2170
##  6 Brunei  1925   2180
##  7 Brunei  1926   2190
##  8 Brunei  1927   2200
##  9 Brunei  1928   2210
## 10 Brunei  1929   2220
## # … with 495 more rows
```
…
#notes: compare change in gdp between countries, (gdpf-gdpi)

9. (3 points) Create three new objects that restrict each data set (life expectancy, population, income) to the years 1920-2020. Hint: I suggest doing this with the long form of your data. Once this is done, merge all three data sets using the code I provide below. You may need to adjust the code depending on how you have named your objects. I called mine `life_expectancy_100`, `population_100`, and `income_100`. For some of you, learning these `joins` will be important for your project.  


```r
life_expectancy_100 <- life_expectancy%>%
  select(country, "x1920":"x2020")%>%
  pivot_longer(-country, names_to = "years", values_to = "life_exp")
life_expectancy_100
```

```
## # A tibble: 18,887 × 3
##    country     years life_exp
##    <chr>       <chr>    <dbl>
##  1 Afghanistan x1920     30.6
##  2 Afghanistan x1921     30.7
##  3 Afghanistan x1922     30.8
##  4 Afghanistan x1923     30.8
##  5 Afghanistan x1924     30.9
##  6 Afghanistan x1925     31  
##  7 Afghanistan x1926     31  
##  8 Afghanistan x1927     31.1
##  9 Afghanistan x1928     31.1
## 10 Afghanistan x1929     31.2
## # … with 18,877 more rows
```

```r
population_100 <- population_total%>%
  select(country, "x1920":"x2020")%>%
  pivot_longer(-country, names_to = "years", values_to = "pop")
population_100
```

```
## # A tibble: 19,695 × 3
##    country     years      pop
##    <chr>       <chr>    <dbl>
##  1 Afghanistan x1920 10600000
##  2 Afghanistan x1921 10500000
##  3 Afghanistan x1922 10300000
##  4 Afghanistan x1923  9710000
##  5 Afghanistan x1924  9200000
##  6 Afghanistan x1925  8720000
##  7 Afghanistan x1926  8260000
##  8 Afghanistan x1927  7830000
##  9 Afghanistan x1928  7420000
## 10 Afghanistan x1929  7100000
## # … with 19,685 more rows
```


```r
income_100 <- gdp_data%>%
  select(country, "x1920":"x2020")%>%
  pivot_longer(-country, names_to = "years", values_to = "gdp")
income_100
```

```
## # A tibble: 19,493 × 3
##    country     years   gdp
##    <chr>       <chr> <dbl>
##  1 Afghanistan x1920  1490
##  2 Afghanistan x1921  1520
##  3 Afghanistan x1922  1550
##  4 Afghanistan x1923  1570
##  5 Afghanistan x1924  1600
##  6 Afghanistan x1925  1630
##  7 Afghanistan x1926  1650
##  8 Afghanistan x1927  1680
##  9 Afghanistan x1928  1710
## 10 Afghanistan x1929  1740
## # … with 19,483 more rows
```


```r
gapminder_join <- inner_join(life_expectancy_100, population_100, by= c("country", "years"))
gapminder_join <- inner_join(gapminder_join, income_100, by= c("country", "years"))
gapminder_join
```

```
## # A tibble: 18,887 × 5
##    country     years life_exp      pop   gdp
##    <chr>       <chr>    <dbl>    <dbl> <dbl>
##  1 Afghanistan x1920     30.6 10600000  1490
##  2 Afghanistan x1921     30.7 10500000  1520
##  3 Afghanistan x1922     30.8 10300000  1550
##  4 Afghanistan x1923     30.8  9710000  1570
##  5 Afghanistan x1924     30.9  9200000  1600
##  6 Afghanistan x1925     31    8720000  1630
##  7 Afghanistan x1926     31    8260000  1650
##  8 Afghanistan x1927     31.1  7830000  1680
##  9 Afghanistan x1928     31.1  7420000  1710
## 10 Afghanistan x1929     31.2  7100000  1740
## # … with 18,877 more rows
```
…
```r
gapminder_join_categories <- gapminder_join%>%
  group_by(country)%>%
  summarise(mean_life_exp = mean(life_exp), mean_pop = mean(pop), mean_income= mean(gdp))%>%
  mutate(life_exp_categories = case_when(mean_life_exp<=43.80 ~ "short lifespan", mean_life_exp>43.80 &mean_life_exp<=70.20 ~ "medium lifespan", mean_life_exp >70.20 ~ "long lifespan" ))%>%
  mutate(pop_categories = case_when(mean_pop<=909500 ~ "small pop", mean_pop>909500 & mean_pop<=11650000 ~ "medium pop", mean_pop>11650000 ~ "large pop"))%>%
  mutate(income_categories = case_when(mean_income<=1630 ~ "low income", mean_income>1630  & mean_income<=9620 ~ "average income", mean_income>9620 ~ "high income"))
gapminder_join_categories
```

```
## # A tibble: 187 × 7
##    country    mean_life_exp mean_pop mean_income life_exp_catego… pop_categories
##    <chr>              <dbl>    <dbl>       <dbl> <chr>            <chr>         
##  1 Afghanist…          43.8   1.44e7       1939. short lifespan   large pop     
##  2 Albania             61.4   2.10e6       4170. medium lifespan  medium pop    
##  3 Algeria             56.3   1.85e7       7850. medium lifespan  large pop     
##  4 Andorra             NA     3.39e4      22644. <NA>             small pop     
##  5 Angola              44.0   1.01e7       3964. medium lifespan  medium pop    
##  6 Antigua a…          63.2   5.87e4       9941. medium lifespan  small pop     
##  7 Argentina           65.8   2.53e7      11752. medium lifespan  large pop     
##  8 Armenia             60.2   2.26e6       3403. medium lifespan  medium pop    
##  9 Australia           72.7   1.32e7      22795. long lifespan    large pop     
## 10 Austria             68.6   7.45e6      20916. medium lifespan  medium pop    
## # … with 177 more rows, and 1 more variable: income_categories <chr>
```

```r
gapminder_join_categories%>%
  select(country, life_exp_categories, pop_categories, income_categories)
```

```
## # A tibble: 187 × 4
##    country             life_exp_categories pop_categories income_categories
##    <chr>               <chr>               <chr>          <chr>            
##  1 Afghanistan         short lifespan      large pop      average income   
##  2 Albania             medium lifespan     medium pop     average income   
##  3 Algeria             medium lifespan     large pop      average income   
##  4 Andorra             <NA>                small pop      high income      
##  5 Angola              medium lifespan     medium pop     average income   
##  6 Antigua and Barbuda medium lifespan     small pop      high income      
##  7 Argentina           medium lifespan     large pop      high income      
##  8 Armenia             medium lifespan     medium pop     average income   
##  9 Australia           long lifespan       large pop      high income      
## 10 Austria             medium lifespan     medium pop     high income      
## # … with 177 more rows
```
…
