…
```r
deserts%>%
  count(genus)%>%
  arrange(n)
```

```
## # A tibble: 26 × 2
##    genus             n
##    <chr>         <int>
##  1 Ammodramus        2
##  2 Cnemidophorus     2
##  3 Crotalus          2
##  4 Zonotrichia       2
##  5 Lizard            4
##  6 Sparrow           4
##  7 Sceloporus        6
##  8 Pooecetes         8
##  9 Rodent           10
## 10 Calamospiza      13
## # … with 16 more rows
```

```r
deserts%>%
  count(species)%>%
  arrange(n)
```

```
## # A tibble: 40 × 2
##    species          n
##    <chr>        <int>
##  1 clarki           1
##  2 scutalatus       1
##  3 tereticaudus     1
##  4 tigris           1
##  5 uniparens        1
##  6 viridis          1
##  7 leucophrys       2
##  8 savannarum       2
##  9 fuscus           5
## 10 undulatus        5
## # … with 30 more rows
```
…
```r
deserts %>% 
  filter(species_id=="DM") %>% 
  group_by(year) %>% 
  summarize(n_DM=n())
```

```
## # A tibble: 26 × 2
##     year  n_DM
##    <dbl> <int>
##  1  1977   264
##  2  1978   389
##  3  1979   209
##  4  1980   493
##  5  1981   559
##  6  1982   609
##  7  1983   528
##  8  1984   396
##  9  1985   667
## 10  1986   406
## # … with 16 more rows
```
…
9. Which two species have, on average, the highest weight? Once you have identified them, make a new column that is a ratio of `weight` to `hindfoot_length`. Make a plot that shows the range of this new ratio and fill by sex.

```r
deserts%>%
  select(species_id, weight)%>%
  mutate(mean_weight=mean(weight))%>%
  arrange(desc(mean_weight))
```

```
## # A tibble: 34,786 × 3
##    species_id weight mean_weight
##    <chr>       <dbl>       <dbl>
##  1 NL             NA          NA
##  2 NL             NA          NA
##  3 DM             NA          NA
##  4 DM             NA          NA
##  5 DM             NA          NA
##  6 PF             NA          NA
##  7 PE             NA          NA
##  8 DM             NA          NA
##  9 DM             NA          NA
## 10 PF             NA          NA
## # … with 34,776 more rows
```


```r
deserts%>%
  mutate(ratio= weight/hindfoot_length)
```

```
## # A tibble: 34,786 × 14
##    record_id month   day  year plot_id species_id sex   hindfoot_length weight
##        <dbl> <dbl> <dbl> <dbl>   <dbl> <chr>      <chr>           <dbl>  <dbl>
##  1         1     7    16  1977       2 NL         M                  32     NA
##  2         2     7    16  1977       3 NL         M                  33     NA
##  3         3     7    16  1977       2 DM         F                  37     NA
##  4         4     7    16  1977       7 DM         M                  36     NA
##  5         5     7    16  1977       3 DM         M                  35     NA
##  6         6     7    16  1977       1 PF         M                  14     NA
##  7         7     7    16  1977       2 PE         F                  NA     NA
##  8         8     7    16  1977       1 DM         M                  37     NA
##  9         9     7    16  1977       1 DM         F                  34     NA
## 10        10     7    16  1977       6 PF         F                  20     NA
## # … with 34,776 more rows, and 5 more variables: genus <chr>, species <chr>,
## #   taxa <chr>, plot_type <chr>, ratio <dbl>
```
…
