…
2. Use `janitor` to rename the columns and make them easier to use. As part of this cleaning step, change `country`, `isscaap_group_number`, `asfis_species_number`, and `fao_major_fishing_area` to data class factor. 

```r
fisheries <- janitor::clean_names(fisheries)
fisheries
```

```
## # A tibble: 17,692 × 71
##    country common_name    isscaap_group_nu… isscaap_taxonomic_… asfis_species_n…
##    <chr>   <chr>                      <dbl> <chr>               <chr>           
##  1 Albania Angelsharks, …                38 Sharks, rays, chim… 10903XXXXX      
##  2 Albania Atlantic boni…                36 Tunas, bonitos, bi… 1750100101      
##  3 Albania Barracudas nei                37 Miscellaneous pela… 17710001XX      
##  4 Albania Blue and red …                45 Shrimps, prawns     2280203101      
##  5 Albania Blue whiting(…                32 Cods, hakes, haddo… 1480403301      
##  6 Albania Bluefish                      37 Miscellaneous pela… 1702021301      
##  7 Albania Bogue                         33 Miscellaneous coas… 1703926101      
##  8 Albania Caramote prawn                45 Shrimps, prawns     2280100117      
##  9 Albania Catsharks, nu…                38 Sharks, rays, chim… 10801003XX      
## 10 Albania Common cuttle…                57 Squids, cuttlefish… 3210200202      
## # … with 17,682 more rows, and 66 more variables: asfis_species_name <chr>,
## #   fao_major_fishing_area <dbl>, measure <chr>, x1950 <chr>, x1951 <chr>,
## #   x1952 <chr>, x1953 <chr>, x1954 <chr>, x1955 <chr>, x1956 <chr>,
## #   x1957 <chr>, x1958 <chr>, x1959 <chr>, x1960 <chr>, x1961 <chr>,
## #   x1962 <chr>, x1963 <chr>, x1964 <chr>, x1965 <chr>, x1966 <chr>,
## #   x1967 <chr>, x1968 <chr>, x1969 <chr>, x1970 <chr>, x1971 <chr>,
## #   x1972 <chr>, x1973 <chr>, x1974 <chr>, x1975 <chr>, x1976 <chr>, …
```
…
fisheries_tidy$catch <- as.numeric(fisheries_tidy$catch)
```

3. How many countries are represented in the data? Provide a count and list their names.

```r
fisheries%>%
  count(country)
```

```
## # A tibble: 204 × 2
##    country                 n
##    <fct>               <int>
##  1 Albania                67
##  2 Algeria                59
##  3 American Samoa         32
##  4 Angola                 88
##  5 Anguilla                3
##  6 Antigua and Barbuda    22
##  7 Argentina             140
##  8 Aruba                   5
##  9 Australia             301
## 10 Bahamas                14
## # … with 194 more rows
```
…
```r
fisheries_tidy%>%
  select("country", "isscaap_taxonomic_group", "asfis_species_name", "asfis_species_number", "year", "catch")
```

```
## # A tibble: 376,771 × 6
##    country isscaap_taxonomic_group asfis_species_n… asfis_species_n…  year catch
##    <fct>   <chr>                   <chr>            <fct>            <dbl> <dbl>
##  1 Albania Sharks, rays, chimaeras Squatinidae      10903XXXXX        1995    NA
##  2 Albania Sharks, rays, chimaeras Squatinidae      10903XXXXX        1996    53
##  3 Albania Sharks, rays, chimaeras Squatinidae      10903XXXXX        1997    20
##  4 Albania Sharks, rays, chimaeras Squatinidae      10903XXXXX        1998    31
##  5 Albania Sharks, rays, chimaeras Squatinidae      10903XXXXX        1999    30
##  6 Albania Sharks, rays, chimaeras Squatinidae      10903XXXXX        2000    30
##  7 Albania Sharks, rays, chimaeras Squatinidae      10903XXXXX        2001    16
##  8 Albania Sharks, rays, chimaeras Squatinidae      10903XXXXX        2002    79
##  9 Albania Sharks, rays, chimaeras Squatinidae      10903XXXXX        2003     1
## 10 Albania Sharks, rays, chimaeras Squatinidae      10903XXXXX        2004     4
## # … with 376,761 more rows
```


5. Based on the asfis_species_number, how many distinct fish species were caught as part of these data?

```r
fisheries_tidy%>%
  distinct(asfis_species_number)
```

```
## # A tibble: 1,551 × 1
##    asfis_species_number
##    <fct>               
##  1 10903XXXXX          
##  2 1750100101          
##  3 17710001XX          
##  4 2280203101          
##  5 1480403301          
##  6 1702021301          
##  7 1703926101          
##  8 2280100117          
##  9 10801003XX          
## 10 3210200202          
## # … with 1,541 more rows
```

6. Which country had the largest overall catch in the year 2000?

```r
fisheries_tidy%>%
  select(country, year, catch)%>%
  filter(year==2000)%>%
  arrange(desc(catch))
```

```
## # A tibble: 8,793 × 3
##    country                   year catch
##    <fct>                    <dbl> <dbl>
##  1 China                     2000  9068
##  2 Peru                      2000  5717
##  3 Russian Federation        2000  5065
##  4 Viet Nam                  2000  4945
##  5 Chile                     2000  4299
##  6 China                     2000  3288
##  7 China                     2000  2782
##  8 United States of America  2000  2438
##  9 China                     2000  1234
## 10 Philippines               2000   999
## # … with 8,783 more rows
```
…
```r
fisheries_tidy%>%
  select(country, year, asfis_species_name, catch)%>%
  filter(between(year, 1990, 2000))%>%
  filter(asfis_species_name=="Sardina pilchardus")%>%
  arrange(desc(catch))
```

```
## # A tibble: 336 × 4
##    country             year asfis_species_name catch
##    <fct>              <dbl> <chr>              <dbl>
##  1 Morocco             1994 Sardina pilchardus   947
##  2 Morocco             1996 Sardina pilchardus   925
##  3 Spain               1996 Sardina pilchardus   912
##  4 Morocco             2000 Sardina pilchardus   859
##  5 Morocco             1990 Sardina pilchardus   845
##  6 Morocco             1991 Sardina pilchardus   827
##  7 Morocco             1998 Sardina pilchardus   723
##  8 Morocco             1993 Sardina pilchardus   710
##  9 Russian Federation  1992 Sardina pilchardus   627
## 10 Russian Federation  1991 Sardina pilchardus   579
## # … with 326 more rows
```
Morocco caught the most Sardina pilchardus between the years of 1990-2000

8. Which five countries caught the most cephalopods between 2008-2012?


```r
fisheries_tidy%>%
  select(country, year, isscaap_taxonomic_group, catch)%>%
  filter(between(year, 2008, 2012))%>%
  filter(isscaap_taxonomic_group=="Squids, cuttlefishes, octopuses")%>%
  arrange(desc(catch))
```

```
## # A tibble: 1,801 × 4
##    country                   year isscaap_taxonomic_group         catch
##    <fct>                    <dbl> <chr>                           <dbl>
##  1 Indonesia                 2012 Squids, cuttlefishes, octopuses   991
##  2 China                     2008 Squids, cuttlefishes, octopuses   981
##  3 Chile                     2012 Squids, cuttlefishes, octopuses   965
##  4 United States of America  2010 Squids, cuttlefishes, octopuses   901
##  5 China                     2012 Squids, cuttlefishes, octopuses   845
##  6 Japan                     2010 Squids, cuttlefishes, octopuses   832
##  7 China                     2010 Squids, cuttlefishes, octopuses   826
##  8 Peru                      2010 Squids, cuttlefishes, octopuses   822
##  9 Korea, Republic of        2008 Squids, cuttlefishes, octopuses   816
## 10 Peru                      2009 Squids, cuttlefishes, octopuses   805
## # … with 1,791 more rows
```
…
9. Which species had the highest catch total between 2008-2012? (hint: Osteichthyes is not a species)

```r
fisheries_tidy%>%
  select(catch, asfis_species_name, year)%>%
  filter(between(year, 2008, 2012))%>%
  group_by(asfis_species_name)%>%
  summarise(catch_total=sum(catch, na.rm=T))%>%
  arrange(desc(catch_total))
```

```
## # A tibble: 1,472 × 2
##    asfis_species_name    catch_total
##    <chr>                       <dbl>
##  1 Osteichthyes               107808
##  2 Theragra chalcogramma       41075
##  3 Engraulis ringens           35523
##  4 Katsuwonus pelamis          32153
##  5 Trichiurus lepturus         30400
##  6 Clupea harengus             28527
##  7 Thunnus albacares           20119
##  8 Scomber japonicus           14723
##  9 Gadus morhua                13253
## 10 Thunnus alalunga            12019
## # … with 1,462 more rows
```
…
