…
Let's load our processed data from the first part of the lab.

```r
spiders <- read_csv(here("lab12", "data", "spiders_with_locs.csv")) %>% clean_names()
spiders
```

```
## # A tibble: 270 × 11
##    accession family    genus  country state county locality date       collector
##        <dbl> <chr>     <chr>  <chr>   <chr> <chr>  <chr>    <date>     <chr>    
##  1   9038521 Telemidae Usofi… USA     Cali… Alame… Berkeley 2019-03-02 LM Smith 
##  2   9038522 Telemidae Usofi… USA     Cali… Alame… Castro … 2019-03-24 WM Pearce
##  3   9038523 Telemidae Usofi… USA     Cali… Alame… Niles, … 2019-01-02 V Roth   
##  4   9038524 Telemidae Usofi… USA     Cali… Alame… Oakland  2019-02-18 WG Benti…
##  5   9038525 Telemidae Usofi… USA     Cali… Alame… Oakland  2019-01-25 R Schust…
##  6   9038526 Telemidae Usofi… USA     Cali… Alame… Oakland  2019-02-18 WC Benti…
##  7   9038527 Telemidae Usofi… USA     Cali… Alame… Oakland  2019-12-10 J Helfer 
##  8  90386281 Telemidae Usofi… USA     Cali… Alame… Oakland… 2019-10-17 Roth, Sc…
##  9   9038529 Telemidae Usofi… USA     Cali… Alame… Oakland… 2019-10-17 Roth, Sc…
## 10  90387441 Telemidae Usofi… USA     Cali… Alame… Berkele… 2019-02-17 PR Craig…
## # … with 260 more rows, and 2 more variables: latitude <dbl>, longitude <dbl>
```
…
